<svg width="31" height="30" viewBox="0 0 31 30" fill="none" xmlns="http://www.w3.org/2000/svg">
<path d="M21.5 17C24.2614 17 26.5 14.7614 26.5 12C26.5 9.23858 24.2614 7 21.5 7C18.7386 7 16.5 9.23858 16.5 12C16.5 14.7614 18.7386 17 21.5 17Z" stroke="#163029" stroke-width="2" stroke-miterlimit="10" stroke-linecap="square" stroke-linejoin="bevel"/>
<path d="M23.5 17L26.5 23" stroke="#163029" stroke-width="2" stroke-miterlimit="10" stroke-linecap="square" stroke-linejoin="bevel"/>
<path d="M4.5 13L12.5 13" stroke="#163029" stroke-width="2" stroke-miterlimit="10" stroke-linecap="square" stroke-linejoin="bevel"/>
<path d="M4.5 8L12.5 8" stroke="#163029" stroke-width="2" stroke-miterlimit="10" stroke-linecap="square" stroke-linejoin="bevel"/>
<path d="M4.5 18L14.5 18" stroke="#163029" stroke-width="2" stroke-miterlimit="10" stroke-linecap="square" stroke-linejoin="bevel"/>
<path d="M4.5 23L21.5 23" stroke="#163029" stroke-width="2" stroke-miterlimit="10" stroke-linecap="square" stroke-linejoin="bevel"/>
</svg>
